{
  "required": {
    "ru": "Это поле обязательно для заполнения"
  },
  "unique": {
    "ru": "Значение поля должно быть уникальным"
  },
  "minLength": {
    "ru": "Слишком мало символов"
  },
  "const": {
    "ru": "Поля не совпадают"
  },
  "pattern": {
    "ru": "Неверный формат ввода"
  },
  "unknown": {
    "ru": "Неизвестная ошибка"
  },
  "Unable to login with provided credentials.": {
    "ru": "Неверно указаны логин и/или пароль либо ваша учетная запись еще не активирована"
  },
  "Enter a valid email address.": {
    "ru": "Введите корректный email адрес"
  },
  "Invalid token for given user.": {
    "ru": "Неверный token. Возможно вы попали сюда по устаревшей ссылке. Попробуйте заново пройти процедуру восстановления пароля"
  }
}