<?xml version="1.0" encoding="UTF-8" standalone="no"?>
<svg
   xmlns:dc="http://purl.org/dc/elements/1.1/"
   xmlns:cc="http://creativecommons.org/ns#"
   xmlns:rdf="http://www.w3.org/1999/02/22-rdf-syntax-ns#"
   xmlns:svg="http://www.w3.org/2000/svg"
   xmlns="http://www.w3.org/2000/svg"
   xmlns:sodipodi="http://sodipodi.sourceforge.net/DTD/sodipodi-0.dtd"
   xmlns:inkscape="http://www.inkscape.org/namespaces/inkscape"
   id="svg8"
   version="1.1"
   viewBox="0 0 50.8 50.799997"
   height="192"
   width="192"
   sodipodi:docname="logo.svg"
   inkscape:version="0.92.3 (2405546, 2018-03-11)"
   inkscape:export-filename="/opt/www/mark-slepkov.ru/client/src/assets/logo.png"
   inkscape:export-xdpi="95"
   inkscape:export-ydpi="95">
  <sodipodi:namedview
     pagecolor="#ffffff"
     bordercolor="#666666"
     borderopacity="1"
     objecttolerance="10"
     gridtolerance="10"
     guidetolerance="10"
     inkscape:pageopacity="0"
     inkscape:pageshadow="2"
     inkscape:window-width="1074"
     inkscape:window-height="600"
     id="namedview1111"
     showgrid="false"
     inkscape:zoom="0.43457604"
     inkscape:cx="82.816113"
     inkscape:cy="172.45474"
     inkscape:window-x="1886"
     inkscape:window-y="94"
     inkscape:window-maximized="0"
     inkscape:current-layer="svg8" />
  <defs
     id="defs2" />
  <metadata
     id="metadata5">
    <rdf:RDF>
      <cc:Work
         rdf:about="">
        <dc:format>image/svg+xml</dc:format>
        <dc:type
           rdf:resource="http://purl.org/dc/dcmitype/StillImage" />
        <dc:title />
      </cc:Work>
    </rdf:RDF>
  </metadata>
  <rect
     style="fill:#f9f9f9;fill-opacity:1;stroke:none;stroke-width:0.22082098;stroke-miterlimit:4;stroke-dasharray:none;stroke-opacity:1"
     id="rect1102"
     width="50.799999"
     height="50.799999"
     x="-1.4210855e-14"
     y="-7.3706059e-07" />
  <g
     transform="translate(-139.23345,-144.17123)"
     id="layer1">
    <g
       id="text12"
       style="font-style:normal;font-variant:normal;font-weight:normal;font-stretch:normal;font-size:50.79999924px;line-height:1.25;font-family:'Samyak Malayalam';-inkscape-font-specification:'Samyak Malayalam';letter-spacing:0px;word-spacing:0px;fill:#000000;fill-opacity:1;stroke:none;stroke-width:0.26458332"
       aria-label="MS">
      <path
         id="path845"
         style="fill:#ff0000;fill-opacity:1"
         d="m 142.86734,154.98066 q 0,-1.43868 2.38125,-1.28985 0.57051,0.0496 0.94258,0.0496 v 0.0248 h 0.5209 l 7.61504,17.23925 7.63984,-17.23925 h 0.27285 v -0.0248 h 2.0836 q 0.89297,0 1.33945,0.74414 0.14883,0.22324 0.14883,0.4961 v 30.46015 h -4.56406 V 165.8203 l -4.7625,11.31094 h -4.29121 l -4.7625,-10.26914 v 18.57871 h -4.56407 z" />
      <path
         id="path847"
         style="font-style:normal;font-variant:normal;font-weight:normal;font-stretch:normal;font-family:Uroob;-inkscape-font-specification:Uroob;stroke-width:0.26458332"
         d="m 174.84058,157.68437 q -1.88515,0 -1.88515,1.95957 v 6.10195 q 0,1.86035 1.88515,1.86035 h 6.57325 q 2.23242,0 3.62148,1.61231 1.36426,1.56269 1.36426,3.77031 v 6.94531 q 0,2.28203 -1.46348,3.86953 -1.51308,1.66192 -3.77031,1.66192 h -7.68945 q -2.43086,0 -3.84473,-1.5875 -1.33945,-1.53789 -1.33945,-3.96875 h 4.2664 q -0.0496,0.86816 0.42168,1.24023 0.4961,0.34727 1.28985,0.34727 h 5.8291 q 1.88515,0 1.88515,-1.86036 v -6.10195 q 0,-1.93476 -1.88515,-1.93476 h -6.3252 q -2.25722,0 -3.77031,-1.66192 -1.46348,-1.6123 -1.46348,-3.89433 v -6.94532 q 0,-2.23242 1.33946,-3.77031 1.46347,-1.63711 3.64629,-1.63711 h 7.68945 q 2.28203,0 3.64629,1.5627 1.28984,1.46347 1.28984,3.81992 h -4.2664 q 0.0496,-1.38906 -1.71153,-1.38906 z" />
    </g>
  </g>
</svg>
